…
``` r
com_df = bind_rows(tw_df, ptw_df) %>%
  relocate(type, everything()) %>%
view()
```

In Mr.Trash Wheel, we have 547 observations, and it is charactrized by
15 variables. We can see the example of the first 5 observations by
using `print(tw_df, n=5)`.

``` r
print(tw_df, n=5)
```

    ## # A tibble: 547 × 15
    ##   dumpster month year  date                weight_tons volume_…¹ plast…² polys…³
    ##      <dbl> <chr> <chr> <dttm>                    <dbl>     <dbl>   <dbl>   <dbl>
    ## 1        1 May   2014  2014-05-16 00:00:00        4.31        18    1450    1820
    ## 2        2 May   2014  2014-05-16 00:00:00        2.74        13    1120    1030
    ## 3        3 May   2014  2014-05-16 00:00:00        3.45        15    2450    3100
    ## 4        4 May   2014  2014-05-17 00:00:00        3.1         15    2380    2730
    ## 5        5 May   2014  2014-05-17 00:00:00        4.06        18     980     870
    ## # … with 542 more rows, 7 more variables: cigarette_butts <dbl>,
    ## #   glass_bottles <dbl>, grocery_bags <dbl>, chip_bags <dbl>,
    ## #   sports_balls <int>, homes_powered <dbl>, type <chr>, and abbreviated
    ## #   variable names ¹​volume_cubic_yards, ²​plastic_bottles, ³​polystyrene

Similiarly, we have 94 observations in the Professional Trash Wheel
datasete which is also charactrized by 15 variables. We can check the
first 5 observations by using `print(tw_df, n=5)`.

``` r
print(ptw_df, n=5)
```

    ## # A tibble: 94 × 15
    ##   dumpster month    year  date                weight_t…¹ volum…² plast…³ polys…⁴
    ##      <dbl> <chr>    <chr> <dttm>                   <dbl>   <dbl>   <dbl>   <dbl>
    ## 1        1 January  2017  2017-01-02 00:00:00       1.79      15    1950    6080
    ## 2        2 January  2017  2017-01-30 00:00:00       1.58      15    9540   11230
    ## 3        3 February 2017  2017-02-26 00:00:00       2.32      18    8350    9210
    ## 4        4 February 2017  2017-02-26 00:00:00       3.72      15    8590    1030
    ## 5        5 February 2017  2017-02-28 00:00:00       1.45      15    7830    9950
    ## # … with 89 more rows, 7 more variables: cigarette_butts <dbl>,
    ## #   glass_bottles <dbl>, grocery_bags <dbl>, chip_bags <dbl>,
    ## #   sports_balls <int>, homes_powered <dbl>, type <chr>, and abbreviated
    ## #   variable names ¹​weight_tons, ²​volume_cubic_yards, ³​plastic_bottles,
    ## #   ⁴​polystyrene
…
``` r
comb2_df = left_join(comb1_df,une_df, by = c("year", "month")) 
```

In the final combined dataset, we have data collected for all months
from `min(comb2_df$year)` to `max(comb2_df$year)`.

It is charactrized by 11 variables. We can see the example of the first
5 observations by using `print(tw_df, n=5)`.

``` r
print(tw_df, n=5)
```

    ## # A tibble: 547 × 15
    ##   dumpster month year  date                weight_tons volume_…¹ plast…² polys…³
    ##      <dbl> <chr> <chr> <dttm>                    <dbl>     <dbl>   <dbl>   <dbl>
    ## 1        1 May   2014  2014-05-16 00:00:00        4.31        18    1450    1820
    ## 2        2 May   2014  2014-05-16 00:00:00        2.74        13    1120    1030
    ## 3        3 May   2014  2014-05-16 00:00:00        3.45        15    2450    3100
    ## 4        4 May   2014  2014-05-17 00:00:00        3.1         15    2380    2730
    ## 5        5 May   2014  2014-05-17 00:00:00        4.06        18     980     870
    ## # … with 542 more rows, 7 more variables: cigarette_butts <dbl>,
    ## #   glass_bottles <dbl>, grocery_bags <dbl>, chip_bags <dbl>,
    ## #   sports_balls <int>, homes_powered <dbl>, type <chr>, and abbreviated
    ## #   variable names ¹​volume_cubic_yards, ²​plastic_bottles, ³​polystyrene
